{"items":[{"external_urls":{"spotify":"https://open.spotify.com/artist/7oPftvlwr6VrsViSDV7fJY"},"href":"https://api.spotify.com/v1/artists/7oPftvlwr6VrsViSDV7fJY","id":"7oPftvlwr6VrsViSDV7fJY","images":[{"height":640,"url":"https://i.scdn.co/image/ab6761610000e5eb6ff0cd5ef2ecf733804984bb","width":640},{"height":320,"url":"https://i.scdn.co/image/ab676161000051746ff0cd5ef2ecf733804984bb","width":320},{"height":160,"url":"https://i.scdn.co/image/ab6761610000f1786ff0cd5ef2ecf733804984bb","width":160}],"name":"Green Day","type":"artist","uri":"spotify:artist:7oPftvlwr6VrsViSDV7fJY"},{"external_urls":{"spotify":"https://open.spotify.com/artist/3AA28KZvwAUcZuOKwyblJQ"},"href":"https://api.spotify.com/v1/artists/3AA28KZvwAUcZuOKwyblJQ","id":"3AA28KZvwAUcZuOKwyblJQ","images":[{"height":640,"url":"https://i.scdn.co/image/ab6761610000e5ebdd5b57b40cf2aaeccd07835e","width":640},{"height":320,"url":"https://i.scdn.co/image/ab67616100005174dd5b57b40cf2aaeccd07835e","width":320},{"height":160,"url":"https://i.scdn.co/image/ab6761610000f178dd5b57b40cf2aaeccd07835e","width":160}],"name":"Gorillaz","type":"artist","uri":"spotify:artist:3AA28KZvwAUcZuOKwyblJQ"},{"external_urls":{"spotify":"https://open.spotify.com/artist/4UXqAaa6dQYAk18Lv7PEgX"},"href":"https://api.spotify.com/v1/artists/4UXqAaa6dQYAk18Lv7PEgX","id":"4UXqAaa6dQYAk18Lv7PEgX","images":[{"height":640,"url":"https://i.scdn.co/image/ab6761610000e5eb362011ebe6064c38e97e9aac","width":640},{"height":320,"url":"https://i.scdn.co/image/ab67616100005174362011ebe6064c38e97e9aac","width":320},{"height":160,"url":"https://i.scdn.co/image/ab6761610000f178362011ebe6064c38e97e9aac","width":160}],"name":"Fall Out Boy","type":"artist","uri":"spotify:artist:4UXqAaa6dQYAk18Lv7PEgX"},{"external_urls":{"spotify":"https://open.spotify.com/artist/7FBcuc1gsnv6Y1nwFtNRCb"},"href":"https://api.spotify.com/v1/artists/7FBcuc1gsnv6Y1nwFtNRCb","id":"7FBcuc1gsnv6Y1nwFtNRCb","images":[{"height":640,"url":"https://i.scdn.co/image/ab6761610000e5eb9c00ad0308287b38b8fdabc2","width":640},{"height":320,"url":"https://i.scdn.co/image/ab676161000051749c00ad0308287b38b8fdabc2","width":320},{"height":160,"url":"https://i.scdn.co/image/ab6761610000f1789c00ad0308287b38b8fdabc2","width":160}],"name":"My Chemical Romance","type":"artist","uri":"spotify:artist:7FBcuc1gsnv6Y1nwFtNRCb"},{"external_urls":{"spotify":"https://open.spotify.com/artist/12Chz98pHFMPJEknJQMWvI"},"href":"https://api.spotify.com/v1/artists/12Chz98pHFMPJEknJQMWvI","id":"12Chz98pHFMPJEknJQMWvI","images":[{"height":640,"url":"https://i.scdn.co/image/ab6761610000e5eb001bed1a54fe90023cae1d1b","width":640},{"height":320,"url":"https://i.scdn.co/image/ab67616100005174001bed1a54fe90023cae1d1b","width":320},{"height":160,"url":"https://i.scdn.co/image/ab6761610000f178001bed1a54fe90023cae1d1b","width":160}],"name":"Muse","type":"artist","uri":"spotify:artist:12Chz98pHFMPJEknJQMWvI"},{"external_urls":{"spotify":"https://open.spotify.com/artist/7Ln80lUS6He07XvHI8qqHH"},"href":"https://api.spotify.com/v1/artists/7Ln80lUS6He07XvHI8qqHH","id":"7Ln80lUS6He07XvHI8qqHH","images":[{"height":640,"url":"https://i.scdn.co/image/ab6761610000e5eb7da39dea0a72f581535fb11f","width":640},{"height":320,"url":"https://i.scdn.co/image/ab676161000051747da39dea0a72f581535fb11f","width":320},{"height":160,"url":"https://i.scdn.co/image/ab6761610000f1787da39dea0a72f581535fb11f","width":160}],"name":"Arctic Monkeys","type":"artist","uri":"spotify:artist:7Ln80lUS6He07XvHI8qqHH"},{"external_urls":{"spotify":"https://open.spotify.com/artist/5INjqkS1o8h1imAzPqGZBb"},"href":"https://api.spotify.com/v1/artists/5INjqkS1o8h1imAzPqGZBb","id":"5INjqkS1o8h1imAzPqGZBb","images":[{"height":640,"url":"https://i.scdn.co/image/ab6761610000e5ebe412a782245eb20d9626c601","width":640},{"height":320,"url":"https://i.scdn.co/image/ab67616100005174e412a782245eb20d9626c601","width":320},{"height":160,"url":"https://i.scdn.co/image/ab6761610000f178e412a782245eb20d9626c601","width":160}],"name":"Tame Impala","type":"artist","uri":"spotify:artist:5INjqkS1o8h1imAzPqGZBb"},{"external_urls":{"spotify":"https://open.spotify.com/artist/1HY2Jd0NmPuamShAr6KMms"},"href":"https://api.spotify.com/v1/artists/1HY2Jd0NmPuamShAr6KMms","id":"1HY2Jd0NmPuamShAr6KMms","images":[{"height":640,"url":"https://i.scdn.co/image/ab6761610000e5ebaadc18cac8d48124357c38e6","width":640},{"height":320,"url":"https://i.scdn.co/image/ab67616100005174aadc18cac8d48124357c38e6","width":320},{"height":160,"url":"https://i.scdn.co/image/ab6761610000f178aadc18cac8d48124357c38e6","width":160}],"name":"Lady Gaga","type":"artist","uri":"spotify:artist:1HY2Jd0NmPuamShAr6KMms"},{"external_urls":{"spotify":"https://open.spotify.com/artist/0SwO7SWeDHJijQ3XNS7xEE"},"href":"https://api.spotify.com/v1/artists/0SwO7SWeDHJijQ3XNS7xEE","id":"0SwO7SWeDHJijQ3XNS7xEE","images":[{"height":640,"url":"https://i.scdn.co/image/ab6761610000e5eb9dccdc8f4087cbe2bdedc9d3","width":640},{"height":320,"url":"https://i.scdn.co/image/ab676161000051749dccdc8f4087cbe2bdedc9d3","width":320},{"height":160,"url":"https://i.scdn.co/image/ab6761610000f1789dccdc8f4087cbe2bdedc9d3","width":160}],"name":"MGMT","type":"artist","uri":"spotify:artist:0SwO7SWeDHJijQ3XNS7xEE"},{"external_urls":{"spotify":"https://open.spotify.com/artist/5Rl15oVamLq7FbSb0NNBNy"},"href":"https://api.spotify.com/v1/artists/5Rl15oVamLq7FbSb0NNBNy","id":"5Rl15oVamLq7FbSb0NNBNy","images":[{"height":640,"url":"https://i.scdn.co/image/ab6761610000e5eb87cde49a53cfbdbecf68fe02","width":640},{"height":320,"url":"https://i.scdn.co/image/ab6761610000517487cde49a53cfbdbecf68fe02","width":320},{"height":160,"url":"https://i.scdn.co/image/ab6761610000f17887cde49a53cfbdbecf68fe02","width":160}],"name":"5 Seconds of Summer","type":"artist","uri":"spotify:artist:5Rl15oVamLq7FbSb0NNBNy"}],"total":79,"limit":10,"offset":0,"href":"https://api.spotify.com/v1/me/top/artists?limit=10&time_range=medium_term","next":"https://api.spotify.com/v1/me/top/artists?offset=10&limit=10&time_range=medium_term","previous":null}